%YAML 1.1
%TAG !u! tag:unity3d.com,2011:
--- !u!1045 &1
EditorBuildSettings:
  m_ObjectHideFlags: 0
  serializedVersion: 2
  m_Scenes:
  - enabled: 1
    path: Assets/Scenes/LoadingScene.unity
    guid: 30165f36bab7a574682cb3ed5b60b198
  - enabled: 1
    path: Assets/Scenes/Scene13.unity
    guid: 984d68fc4ad403149898659a0f233162
  m_configObjects: {}
